…
``` r
merged <- top_article %>% 
  left_join(follower_counts %>% 
              select(from_user_id = user_id, 
                     from_followers_count = followers_count)) %>%
  left_join(follower_counts %>% 
              select(to_user_id = user_id, 
                     to_followers_count = followers_count))

merged %>% select(from_user_screen_name, from_followers_count,
                  to_user_screen_name, to_followers_count,
                  tweet_type, tweet_created_at)
```

    ## # A tibble: 3,926 x 6
    ##    from_user_scree… from_followers_… to_user_screen_… to_followers_co…
    ##    <chr>                       <int> <chr>                       <int>
    ##  1 LDknepper                   12289 T_S_P_O_O_K_Y              122658
    ##  2 LDknepper                   12289 T_S_P_O_O_K_Y              122658
    ##  3 LDknepper                   12289 TomFitton                 1303941
    ##  4 LDknepper                   12289 realDimitraE                 7828
    ##  5 LDknepper                   12289 realDimitraE                 7828
    ##  6 LDknepper                   12289 Narrow_Gate_                  131
    ##  7 LDknepper                   12289 Narrow_Gate_                  131
    ##  8 LDknepper                   12289 Narrow_Gate_                  131
    ##  9 LDknepper                   12289 Narrow_Gate_                  131
    ## 10 LDknepper                   12289 jtcyberfm                    2506
    ## # … with 3,916 more rows, and 2 more variables: tweet_type <chr>,
    ## #   tweet_created_at <dttm>
…
